<?xml version="1.0" encoding="utf-8"?>
<!-- Generator: Adobe Illustrator 20.1.0, SVG Export Plug-In . SVG Version: 6.00 Build 0)  -->
<svg version="1.1" id="Слой_1" xmlns="http://www.w3.org/2000/svg" xmlns:xlink="http://www.w3.org/1999/xlink" x="0px" y="0px"
	 viewBox="0 0 64 64" style="enable-background:new 0 0 64 64;" xml:space="preserve">
<style type="text/css">
	.st0{fill:none;stroke:#FFFFFF;stroke-width:9;stroke-linecap:square;}
</style>
<title>Group</title>
<desc>Created with Sketch.</desc>
<g id="web-ui">
	<g id="_x32_.1_x5F_index_x5F_feed" transform="translate(-1165.000000, -1087.000000)">
		<g id="add-a-new-card-button" transform="translate(1053.000000, 953.000000)">
			<g id="add-button" transform="translate(117.000000, 139.000000)">
				<g id="Group">
					<path id="Line-2" class="st0" d="M27,0v54"/>
					<path id="Line-2_1_" class="st0" d="M54,27H0"/>
				</g>
			</g>
		</g>
	</g>
</g>
</svg>
