<?xml version="1.0" encoding="UTF-8"?>
<svg width="17px" height="16px" viewBox="0 0 17 16" version="1.1" xmlns="http://www.w3.org/2000/svg" xmlns:xlink="http://www.w3.org/1999/xlink">
    <!-- Generator: Sketch 47 (45396) - http://www.bohemiancoding.com/sketch -->
    <title>error</title>
    <desc>Created with Sketch.</desc>
    <defs></defs>
    <g id="web-ui" stroke="none" stroke-width="1" fill="none" fill-rule="evenodd">
        <g id="1.2.authorization_log-in-incorrect" transform="translate(-923.000000, -497.000000)">
            <g id="error" transform="translate(922.000000, 495.000000)">
                <rect id="Rectangle-26" stroke="#979797" stroke-width="0.826086957" opacity="0" x="0.413043478" y="0.413043478" width="18.173913" height="19.173913"></rect>
                <path d="M16.1086957,3.75 L2.89130435,16.25" id="Line-7" stroke="#EF5655" stroke-width="1.65217391" stroke-linecap="square"></path>
                <path d="M16.1086957,3.75 L2.89130435,16.25" id="Line-7" stroke="#EF5655" stroke-width="1.65217391" stroke-linecap="square" transform="translate(9.500000, 10.000000) scale(-1, 1) translate(-9.500000, -10.000000) "></path>
            </g>
        </g>
    </g>
</svg>