<?xml version="1.0" encoding="utf-8"?>
<!-- Generator: Adobe Illustrator 20.1.0, SVG Export Plug-In . SVG Version: 6.00 Build 0)  -->
<svg version="1.1" id="Слой_1" xmlns="http://www.w3.org/2000/svg" xmlns:xlink="http://www.w3.org/1999/xlink" x="0px" y="0px"
	 viewBox="0 0 11.2 6.7" style="enable-background:new 0 0 11.2 6.7;" xml:space="preserve">
<style type="text/css">
	.st0{fill:none;stroke:#979797;stroke-opacity:0;}
	.st1{fill:none;stroke:#000000;stroke-width:1.6;}
</style>
<title>menu_icon</title>
<desc>Created with Sketch.</desc>
<g id="web-ui">
	<g id="_x32_.1_x5F_index_x5F_feed" transform="translate(-1328.000000, -41.000000)">
		<g id="menu_icon" transform="translate(1321.000000, 30.000000)">
			<rect id="Rectangle-8" x="0.1" y="0" class="st0" width="24" height="24"/>
			<polyline id="Triangle-2" class="st1" points="7.6,11.5 12.6,16.5 12.6,16.5 17.6,11.5 			"/>
		</g>
	</g>
</g>
</svg>
